{
  "kind": "collectionType",
  "collectionName": "restaurants",
  "info": {
    "name": "restaurant"
  },
  "options": {
    "increments": true,
    "timestamps": true
  },
  "attributes": {
    "name": {
      "type": "string"
    },
    "description": {
      "type": "richtext",
      "private": false
    },
    "image": {
      "model": "file",
      "via": "related",
      "allowedTypes": [
        "images",
        "files",
        "videos"
      ],
      "plugin": "upload",
      "required": false
    },
    "dishes": {
      "via": "restaurant",
      "collection": "dish"
    }
  }
}
